sim/vivado/sim_01_axis/dump.vcd
$date
   Mon Sep  2 21:18:38 2024
$end

$version
  2024.1
  $dumpfile ("dump.vcd") 
$end

$timescale
  1ps
$end

$scope module tb $end
$var reg 32 ! test_id [31:0] $end
$var reg 1 " clk $end
$var reg 1 # reset_n $end
$var reg 80 $ in_tdata [79:0] $end
$var reg 1 % in_tvalid $end
$var reg 1 & in_tready $end
$var reg 40 ' expect_tdata [39:0] $end
$var reg 40 ( out_tdata [39:0] $end
$var reg 1 ) out_tvalid $end
$var reg 1 * out_tready $end
$var reg 32 + cnt_wr [31:0] $end
$var reg 32 , cnt_rd [31:0] $end
$var reg 32 - cnt_ok [31:0] $end
$var reg 32 . cnt_error [31:0] $end
$var reg 1 / test_start $end
$var reg 1 0 test_timeout $end
$var reg 1 1 test_done $end
$var reg 32 2 out_ready_cnt [31:0] $end
$var reg 32 3 q_data $end
$var real 32 4 cv_all $end
$scope module uut $end
$var wire 1 5 clk $end
$var wire 1 6 reset_n $end
$var wire 80 7 in_tdata [79:0] $end
$var wire 1 8 in_tvalid $end
$var wire 1 9 in_tready $end
$var wire 40 : out_tdata [39:0] $end
$var wire 1 ; out_tvalid $end
$var wire 1 < out_tready $end
$upscope $end
$scope begin Block108_11 $end
$var reg 32 = args [31:0] $end
$upscope $end
$scope begin Block223_17 $end
$var reg 32 > ii [31:0] $end
$upscope $end
$scope task test_finish $end
$var reg 32 ? test_id [31:0] $end
$var reg 32 @ result [31:0] $end
$upscope $end
$scope task set_outready_cnt $end
$var reg 32 A cnt [31:0] $end
$upscope $end
$scope task gen_out_tready $end
$upscope $end
$scope task write_data $end
$var reg 40 B data [39:0] $end
$var reg 32 C pause [31:0] $end
$upscope $end
$scope task write_seq $end
$upscope $end
$upscope $end
$enddefinitions $end

#0
$dumpvars
b0 !
0"
0#
b0 $
0%
0&
bx '
b0 (
0)
1*
b0 +
b0 ,
b0 -
b0 .
0/
00
01
b0 2
b0 3
r0 4
05
06
b0 7
08
09
b0 :
0;
1<
b0 =
b0 >
b0 ?
b0 @
b0 A
bx B
b0 C
$end

#5000
1"
15

#10000
0"
05

#15000
1"
15

#20000
0"
05

#25000
1"
15

#30000
0"
05

#35000
1"
15

#40000
0"
05

#45000
1"
15

#50000
0"
05

#55000
1"
15

#60000
0"
05

#65000
1"
15

#70000
0"
05

#75000
1"
15

#80000
0"
05

#85000
1"
15

#90000
0"
05

#95000
1"
15

#100000
0"
1#
1&
05
16
19

#105000
1"
r35.71428571428572 4
15

#110000
0"
05

#115000
1"
15

#120000
0"
05

#125000
1"
15

#130000
0"
05

#135000
1"
15

#140000
0"
05

#145000
1"
15

#150000
0"
05

#155000
1"
15

#160000
0"
05

#165000
1"
15

#170000
0"
05

#175000
1"
15

#180000
0"
05

#185000
1"
15

#190000
0"
05

#195000
1"
15

#200000
0"
05

#205000
1"
15

#210000
0"
05

#215000
1"
15

#220000
0"
05

#225000
1"
15

#230000
0"
05

#235000
1"
15

#240000
0"
05

#245000
1"
15

#250000
0"
05

#255000
1"
15

#260000
0"
05

#265000
1"
15

#270000
0"
05

#275000
1"
15

#280000
0"
05

#285000
1"
15

#290000
0"
05

#295000
1"
15

#300000
0"
05

#305000
1"
15

#310000
0"
05

#315000
1"
15

#320000
0"
05

#325000
1"
15

#330000
0"
05

#335000
1"
15

#340000
0"
05

#345000
1"
15

#350000
0"
05

#355000
1"
15

#360000
0"
05

#365000
1"
15

#370000
0"
05

#375000
1"
15

#380000
0"
05

#385000
1"
15

#390000
0"
05

#395000
1"
15

#400000
0"
05

#405000
1"
15

#410000
0"
05

#415000
1"
15

#420000
0"
05

#425000
1"
15

#430000
0"
05

#435000
1"
15

#440000
0"
05

#445000
1"
15

#450000
0"
05

#455000
1"
15

#460000
0"
05

#465000
1"
15

#470000
0"
05

#475000
1"
15

#480000
0"
05

#485000
1"
15

#490000
0"
05

#495000
1"
15

#500000
0"
05

#505000
1"
15

#510000
0"
05

#515000
1"
15

#520000
0"
05

#525000
1"
15

#530000
0"
05

#535000
1"
15

#540000
0"
05

#545000
1"
15

#550000
0"
05

#555000
1"
15

#560000
0"
05

#565000
1"
15

#570000
0"
05

#575000
1"
15

#580000
0"
05

#585000
1"
15

#590000
0"
05

#595000
1"
15

#600000
0"
05

#605000
1"
15

#610000
0"
05

#615000
1"
15

#620000
0"
05

#625000
1"
15

#630000
0"
05

#635000
1"
15

#640000
0"
05

#645000
1"
15

#650000
0"
05

#655000
1"
15

#660000
0"
05

#665000
1"
15

#670000
0"
05

#675000
1"
15

#680000
0"
05

#685000
1"
15

#690000
0"
05

#695000
1"
15

#700000
0"
05

#705000
1"
15

#710000
0"
05

#715000
1"
15

#720000
0"
05

#725000
1"
15

#730000
0"
05

#735000
1"
15

#740000
0"
05

#745000
1"
15

#750000
0"
05

#755000
1"
15

#760000
0"
05

#765000
1"
15

#770000
0"
05

#775000
1"
15

#780000
0"
05

#785000
1"
15

#790000
0"
05

#795000
1"
15

#800000
0"
05

#805000
1"
15

#810000
0"
05

#815000
1"
15

#820000
0"
05

#825000
1"
15

#830000
0"
05

#835000
1"
15

#840000
0"
05

#845000
1"
15

#850000
0"
05

#855000
1"
15

#860000
0"
05

#865000
1"
15

#870000
0"
05

#875000
1"
15

#880000
0"
05

#885000
1"
15

#890000
0"
05

#895000
1"
15

#900000
0"
05

#905000
1"
15

#910000
0"
05

#915000
1"
15

#920000
0"
05

#925000
1"
15

#930000
0"
05

#935000
1"
15

#940000
0"
05

#945000
1"
15

#950000
0"
05

#955000
1"
15

#960000
0"
05

#965000
1"
15

#970000
0"
05

#975000
1"
15

#980000
0"
05

#985000
1"
15

#990000
0"
05

#995000
1"
15

#1000000
0"
05

#1005000
1"
15

#1010000
0"
05

#1015000
1"
15

#1020000
0"
05

#1025000
1"
15

#1030000
0"
05

#1035000
1"
15

#1040000
0"
05

#1045000
1"
15

#1050000
0"
05

#1055000
1"
15

#1060000
0"
05

#1065000
1"
15

#1070000
0"
05

#1075000
1"
15

#1080000
0"
05

#1085000
1"
15

#1090000
0"
05

#1095000
1"
15

#1096000
1/

#1100000
0"
05

#1105000
1"
15

#1110000
0"
05

#1115000
1"
15

#1120000
0"
05

#1125000
1"
15

#1130000
0"
05

#1135000
1"
15

#1140000
0"
05

#1145000
1"
15

#1150000
0"
05

#1155000
1"
15

#1160000
0"
05

#1165000
1"
15

#1170000
0"
05

#1175000
1"
15

#1180000
0"
05

#1185000
1"
15

#1190000
0"
05

#1195000
1"
15

#1200000
0"
05

#1205000
1"
15

#1210000
0"
05

#1215000
1"
15

#1220000
0"
05

#1225000
1"
15

#1230000
0"
05

#1235000
1"
15

#1240000
0"
05

#1245000
1"
15

#1250000
0"
05

#1255000
1"
15

#1260000
0"
05

#1265000
1"
15

#1270000
0"
05

#1275000
1"
15

#1280000
0"
05

#1285000
1"
15

#1290000
0"
05

#1295000
1"
15

#1300000
0"
05

#1305000
1"
15

#1310000
0"
05

#1315000
1"
15

#1320000
0"
05

#1325000
1"
15

#1330000
0"
05

#1335000
1"
15

#1340000
0"
05

#1345000
1"
15

#1350000
0"
05

#1355000
1"
15

#1360000
0"
05

#1365000
1"
15

#1370000
0"
05

#1375000
1"
15

#1380000
0"
05

#1385000
1"
15

#1390000
0"
05

#1395000
1"
15

#1400000
0"
05

#1405000
1"
15

#1410000
0"
05

#1415000
1"
15

#1420000
0"
05

#1425000
1"
15

#1430000
0"
05

#1435000
1"
15

#1440000
0"
05

#1445000
1"
15

#1450000
0"
05

#1455000
1"
15

#1460000
0"
05

#1465000
1"
15

#1470000
0"
05

#1475000
1"
15

#1480000
0"
05

#1485000
1"
15

#1490000
0"
05

#1495000
1"
15

#1500000
0"
05

#1505000
1"
15

#1510000
0"
05

#1515000
1"
15

#1520000
0"
05

#1525000
1"
15

#1530000
0"
05

#1535000
1"
15

#1540000
0"
05

#1545000
1"
15

#1550000
0"
05

#1555000
1"
15

#1560000
0"
05

#1565000
1"
15

#1570000
0"
05

#1575000
1"
15

#1580000
0"
05

#1585000
1"
15

#1590000
0"
05

#1595000
1"
15

#1600000
0"
05

#1605000
1"
15
b100000101000010010000110100010001000101 B

#1606000
b100000101000010010000110100010001000101 $
1%
b100000101000010010000110100010001000101 (
1)
b100000101000010010000110100010001000101 7
18
b100000101000010010000110100010001000101 :
1;

#1610000
0"
05

#1615000
1"
b100000101000010010000110100010001000101 '
b1 +
b1 ,
b1 -
r57.14285714285715 4
15
b101 >
b100011001000111010010000100100101001010 B
b10 C

#1616000
b100011001000111010010000100100101001010 $
b100011001000111010010000100100101001010 (
b100011001000111010010000100100101001010 7
b100011001000111010010000100100101001010 :

#1620000
0"
05

#1625000
1"
b100011001000111010010000100100101001010 '
b10 +
b10 ,
b10 -
15
b101 >

#1626000
b0 $
0%
b0 (
0)
b0 7
08
b0 :
0;

#1630000
0"
05

#1635000
1"
15

#1640000
0"
05

#1645000
1"
15
b100101101001100010011010100111101001110 B
b0 C

#1646000
b100101101001100010011010100111101001110 $
1%
b100101101001100010011010100111101001110 (
1)
b100101101001100010011010100111101001110 7
18
b100101101001100010011010100111101001110 :
1;

#1650000
0"
05

#1655000
1"
b100101101001100010011010100111101001110 '
b11 +
b11 ,
b11 -
b11 2
15
b101 >
b100 A
b101000001010001010100100101001101010100 B

#1656000
b101000001010001010100100101001101010100 $
0&
b101000001010001010100100101001101010100 (
0*
b101000001010001010100100101001101010100 7
09
b101000001010001010100100101001101010100 :
0<

#1660000
0"
05

#1665000
1"
b10 2
r78.57142857142857 4
15

#1670000
0"
05

#1675000
1"
b1 2
15

#1680000
0"
05

#1685000
1"
b0 2
15

#1686000
1&
1*
19
1<

#1690000
0"
05

#1695000
1"
b101000001010001010100100101001101010100 '
b100 +
b100 ,
b100 -
r83.33333333333333 4
15
b101 >
b101010101010110010101110101100001011001 B

#1696000
b101010101010110010101110101100001011001 $
b101010101010110010101110101100001011001 (
b101010101010110010101110101100001011001 7
b101010101010110010101110101100001011001 :

#1700000
0"
05

#1705000
1"
b101010101010110010101110101100001011001 '
b101 +
b101 ,
b101 -
15
b101 >
b101101001100001011000100110001101100100 B

#1706000
b101101001100001011000100110001101100100 $
b101101001100001011000100110001101100100 (
b101101001100001011000100110001101100100 7
b101101001100001011000100110001101100100 :

#1710000
0"
05

#1715000
1"
b101101001100001011000100110001101100100 '
b110 +
b110 ,
b110 -
b0 2
15
b101 >
b1 A
b110010101100110011001110110100001101001 B
b1 C

#1716000
b110010101100110011001110110100001101001 $
b110010101100110011001110110100001101001 (
1*
b110010101100110011001110110100001101001 7
b110010101100110011001110110100001101001 :

#1720000
0"
05

#1725000
1"
b110010101100110011001110110100001101001 '
b111 +
b111 ,
b111 -
15
b101 >

#1726000
b0 $
0%
b0 (
0)
b0 7
08
b0 :
0;

#1730000
0"
05

#1735000
1"
15
b110101001101011011011000110110101101111 B

#1736000
b110101001101011011011000110110101101111 $
1%
b110101001101011011011000110110101101111 (
1)
b110101001101011011011000110110101101111 7
18
b110101001101011011011000110110101101111 :
1;

#1740000
0"
05

#1745000
1"
b110101001101011011011000110110101101111 '
b1000 +
b1000 ,
b1000 -
15
b101 >

#1746000
b0 $
0%
b0 (
0)
b0 7
08
b0 :
0;

#1750000
0"
05

#1755000
1"
b11 2
15
b100 A

#1756000
0&
0*
09
0<

#1760000
0"
05

#1765000
1"
b10 2
r90.47619047619047 4
15

#1770000
0"
05

#1775000
1"
b1 2
15

#1780000
0"
05

#1785000
1"
b0 2
15

#1786000
1&
1*
19
1<

#1790000
0"
05

#1795000
1"
15

#1800000
0"
05

#1805000
1"
15

#1810000
0"
05

#1815000
1"
15

#1820000
0"
05

#1825000
1"
15

#1830000
0"
05

#1835000
1"
15

#1840000
0"
05

#1845000
1"
15

#1850000
0"
05

#1855000
1"
15
b100000101000010010000110100010001000101 B
b0 C

#1856000
b100000101000010010000110100010001000101 $
1%
b100000101000010010000110100010001000101 (
1)
b100000101000010010000110100010001000101 7
18
b100000101000010010000110100010001000101 :
1;

#1860000
0"
05

#1865000
1"
b100000101000010010000110100010001000101 '
b1001 +
b1001 ,
b1001 -
15
b101 >
b100011001000111010010000100100101001010 B

#1866000
b100011001000111010010000100100101001010 $
b100011001000111010010000100100101001010 (
b100011001000111010010000100100101001010 7
b100011001000111010010000100100101001010 :

#1870000
0"
05

#1875000
1"
b100011001000111010010000100100101001010 '
b1010 +
b1010 ,
b1010 -
15
b101 >
b100101101001100010011010100111101001110 B
b1 C

#1876000
b100101101001100010011010100111101001110 $
b100101101001100010011010100111101001110 (
b100101101001100010011010100111101001110 7
b100101101001100010011010100111101001110 :

#1880000
0"
05

#1885000
1"
b100101101001100010011010100111101001110 '
b1011 +
b1011 ,
b1011 -
15
b101 >

#1886000
b0 $
0%
b0 (
0)
b0 7
08
b0 :
0;

#1890000
0"
05

#1895000
1"
15

#1900000
0"
05

#1905000
1"
15

#1910000
0"
05

#1915000
1"
15

#1920000
0"
05

#1925000
1"
15

#1930000
0"
05

#1935000
1"
15

#1940000
0"
05

#1945000
1"
15

#1950000
0"
05

#1955000
1"
15

#1960000
0"
05

#1965000
1"
15

#1970000
0"
05

#1975000
1"
15

#1980000
0"
05

#1985000
1"
15

#1990000
0"
05

#1995000
1"
15
b101000001010001010100100101001101010100 B
b0 C

#1996000
b101000001010001010100100101001101010100 $
1%
b101000001010001010100100101001101010100 (
1)
b101000001010001010100100101001101010100 7
18
b101000001010001010100100101001101010100 :
1;

#2000000
0"
05

#2005000
1"
b101000001010001010100100101001101010100 '
b1100 +
b1100 ,
b1100 -
15
b101 >
b101010101010110010101110101100001011001 B

#2006000
b101010101010110010101110101100001011001 $
b101010101010110010101110101100001011001 (
b101010101010110010101110101100001011001 7
b101010101010110010101110101100001011001 :

#2010000
0"
05

#2015000
1"
b101010101010110010101110101100001011001 '
b1101 +
b1101 ,
b1101 -
15
b101 >
b101101001100001011000100110001101100100 B
b1 C

#2016000
b101101001100001011000100110001101100100 $
b101101001100001011000100110001101100100 (
b101101001100001011000100110001101100100 7
b101101001100001011000100110001101100100 :

#2020000
0"
05

#2025000
1"
b101101001100001011000100110001101100100 '
b1110 +
b1110 ,
b1110 -
15
b101 >

#2026000
b0 $
0%
b0 (
0)
b0 7
08
b0 :
0;

