sim/vivado/sim_01_axis/dump.vcd
$date
   Wed Sep  4 23:10:20 2024
$end

$version
  2024.1
  $dumpfile ("dump.vcd") 
$end

$timescale
  1ps
$end

$scope module tb $end
$var reg 32 ! test_id [31:0] $end
$var reg 1 " clk $end
$var reg 1 # reset_n $end
$var reg 80 $ in_tdata [79:0] $end
$var reg 1 % in_tvalid $end
$var reg 1 & in_tready $end
$var reg 40 ' expect_tdata [39:0] $end
$var reg 40 ( out_tdata [39:0] $end
$var reg 1 ) out_tvalid $end
$var reg 1 * out_tready $end
$var reg 32 + cnt_wr [31:0] $end
$var reg 32 , cnt_rd [31:0] $end
$var reg 32 - cnt_ok [31:0] $end
$var reg 32 . cnt_error [31:0] $end
$var reg 1 / test_start $end
$var reg 1 0 test_timeout $end
$var reg 1 1 test_done $end
$var reg 32 2 out_ready_cnt [31:0] $end
$var reg 32 3 q_data $end
$var real 32 4 cv_all $end
$scope module uut $end
$var wire 1 5 clk $end
$var wire 1 6 reset_n $end
$var wire 80 7 in_tdata [79:0] $end
$var wire 1 8 in_tvalid $end
$var wire 1 9 in_tready $end
$var wire 40 : out_tdata [39:0] $end
$var wire 1 ; out_tvalid $end
$var wire 1 < out_tready $end
$upscope $end
$scope begin Block108_11 $end
$var reg 32 = args [31:0] $end
$upscope $end
$scope begin Block223_17 $end
$var reg 32 > ii [31:0] $end
$upscope $end
$scope task test_finish $end
$var reg 32 ? test_id [31:0] $end
$var reg 32 @ result [31:0] $end
$upscope $end
$scope task set_outready_cnt $end
$var reg 32 A cnt [31:0] $end
$upscope $end
$scope task gen_out_tready $end
$upscope $end
$scope task write_data $end
$var reg 40 B data [39:0] $end
$var reg 32 C pause [31:0] $end
$upscope $end
$scope task write_seq $end
$upscope $end
$upscope $end
$enddefinitions $end

#0
$dumpvars
b1 !
0"
0#
b0 $
0%
0&
bx '
b0 (
0)
1*
b0 +
b0 ,
b0 -
b0 .
0/
00
01
b0 2
b0 3
r0 4
05
06
b0 7
08
09
b0 :
0;
1<
b0 =
b0 >
b0 ?
b0 @
b0 A
bx B
b0 C
$end

#5000
1"
15

#10000
0"
05

#15000
1"
15

#20000
0"
05

#25000
1"
15

#30000
0"
05

#35000
1"
15

#40000
0"
05

#45000
1"
15

#50000
0"
05

#55000
1"
15

#60000
0"
05

#65000
1"
15

#70000
0"
05

#75000
1"
15

#80000
0"
05

#85000
1"
15

#90000
0"
05

#95000
1"
15

#100000
0"
1#
1&
05
16
19

#105000
1"
r35.71428571428572 4
15

#110000
0"
05

#115000
1"
15

#120000
0"
05

#125000
1"
15

#130000
0"
05

#135000
1"
15

#140000
0"
05

#145000
1"
15

#150000
0"
05

#155000
1"
15

#160000
0"
05

#165000
1"
15

#170000
0"
05

#175000
1"
15

#180000
0"
05

#185000
1"
15

#190000
0"
05

#195000
1"
15

#200000
0"
05

#205000
1"
15

#210000
0"
05

#215000
1"
15

#220000
0"
05

#225000
1"
15

#230000
0"
05

#235000
1"
15

#240000
0"
05

#245000
1"
15

#250000
0"
05

#255000
1"
15

#260000
0"
05

#265000
1"
15

#270000
0"
05

#275000
1"
15

#280000
0"
05

#285000
1"
15

#290000
0"
05

#295000
1"
15

#300000
0"
05

#305000
1"
15

#310000
0"
05

#315000
1"
15

#320000
0"
05

#325000
1"
15

#330000
0"
05

#335000
1"
15

#340000
0"
05

#345000
1"
15

#350000
0"
05

#355000
1"
15

#360000
0"
05

#365000
1"
15

#370000
0"
05

#375000
1"
15

#380000
0"
05

#385000
1"
15

#390000
0"
05

#395000
1"
15

#400000
0"
05

#405000
1"
15

#410000
0"
05

#415000
1"
15

#420000
0"
05

#425000
1"
15

#430000
0"
05

#435000
1"
15

#440000
0"
05

#445000
1"
15

#450000
0"
05

#455000
1"
15

#460000
0"
05

#465000
1"
15

#470000
0"
05

#475000
1"
15

#480000
0"
05

#485000
1"
15

#490000
0"
05

#495000
1"
15

#500000
0"
05

#505000
1"
15

#510000
0"
05

#515000
1"
15

#520000
0"
05

#525000
1"
15

#530000
0"
05

#535000
1"
15

#540000
0"
05

#545000
1"
15

#550000
0"
05

#555000
1"
15

#560000
0"
05

#565000
1"
15

#570000
0"
05

#575000
1"
15

#580000
0"
05

#585000
1"
15

#590000
0"
05

#595000
1"
15

#600000
0"
05

#605000
1"
15

#610000
0"
05

#615000
1"
15

#620000
0"
05

#625000
1"
15

#630000
0"
05

#635000
1"
15

#640000
0"
05

#645000
1"
15

#650000
0"
05

#655000
1"
15

#660000
0"
05

#665000
1"
15

#670000
0"
05

#675000
1"
15

#680000
0"
05

#685000
1"
15

#690000
0"
05

#695000
1"
15

#700000
0"
05

#705000
1"
15

#710000
0"
05

#715000
1"
15

#720000
0"
05

#725000
1"
15

#730000
0"
05

#735000
1"
15

#740000
0"
05

#745000
1"
15

#750000
0"
05

#755000
1"
15

#760000
0"
05

#765000
1"
15

#770000
0"
05

#775000
1"
15

#780000
0"
05

#785000
1"
15

#790000
0"
05

#795000
1"
15

#800000
0"
05

#805000
1"
15

#810000
0"
05

#815000
1"
15

#820000
0"
05

#825000
1"
15

#830000
0"
05

#835000
1"
15

#840000
0"
05

#845000
1"
15

#850000
0"
05

#855000
1"
15

#860000
0"
05

#865000
1"
15

#870000
0"
05

#875000
1"
15

#880000
0"
05

#885000
1"
15

#890000
0"
05

#895000
1"
15

#900000
0"
05

#905000
1"
15

#910000
0"
05

#915000
1"
15

#920000
0"
05

#925000
1"
15

#930000
0"
05

#935000
1"
15

#940000
0"
05

#945000
1"
15

#950000
0"
05

#955000
1"
15

#960000
0"
05

#965000
1"
15

#970000
0"
05

#975000
1"
15

#980000
0"
05

#985000
1"
15

#990000
0"
05

#995000
1"
15

#1000000
0"
05

#1005000
1"
15

#1010000
0"
05

#1015000
1"
15

#1020000
0"
05

#1025000
1"
15

#1030000
0"
05

#1035000
1"
15

#1040000
0"
05

#1045000
1"
15

#1050000
0"
05

#1055000
1"
15

#1060000
0"
05

#1065000
1"
15

#1070000
0"
05

#1075000
1"
15

#1080000
0"
05

#1085000
1"
15

#1090000
0"
05

#1095000
1"
15

#1096000
1/

#1100000
0"
05

#1105000
1"
15

#1110000
0"
05

#1115000
1"
15

#1120000
0"
05

#1125000
1"
15

#1130000
0"
05

#1135000
1"
15

#1140000
0"
05

#1145000
1"
15

#1150000
0"
05

#1155000
1"
15

#1160000
0"
05

#1165000
1"
15

#1170000
0"
05

#1175000
1"
15

#1180000
0"
05

#1185000
1"
15

#1190000
0"
05

#1195000
1"
15

#1200000
0"
05

#1205000
1"
15

#1210000
0"
05

#1215000
1"
15

#1220000
0"
05

#1225000
1"
15

#1230000
0"
05

#1235000
1"
15

#1240000
0"
05

#1245000
1"
15

#1250000
0"
05

#1255000
1"
15

#1260000
0"
05

#1265000
1"
15

#1270000
0"
05

#1275000
1"
15

#1280000
0"
05

#1285000
1"
15

#1290000
0"
05

#1295000
1"
15

#1300000
0"
05

#1305000
1"
15

#1310000
0"
05

#1315000
1"
15

#1320000
0"
05

#1325000
1"
15

#1330000
0"
05

#1335000
1"
15

#1340000
0"
05

#1345000
1"
15

#1350000
0"
05

#1355000
1"
15

#1360000
0"
05

#1365000
1"
15

#1370000
0"
05

#1375000
1"
15

#1380000
0"
05

#1385000
1"
15

#1390000
0"
05

#1395000
1"
15

#1400000
0"
05

#1405000
1"
15

#1410000
0"
05

#1415000
1"
15

#1420000
0"
05

#1425000
1"
15

#1430000
0"
05

#1435000
1"
15

#1440000
0"
05

#1445000
1"
15

#1450000
0"
05

#1455000
1"
15

#1460000
0"
05

#1465000
1"
15

#1470000
0"
05

#1475000
1"
15

#1480000
0"
05

#1485000
1"
15

#1490000
0"
05

#1495000
1"
15

#1500000
0"
05

#1505000
1"
15

#1510000
0"
05

#1515000
1"
15

#1520000
0"
05

#1525000
1"
15

#1530000
0"
05

#1535000
1"
15

#1540000
0"
05

#1545000
1"
15

#1550000
0"
05

#1555000
1"
15

#1560000
0"
05

#1565000
1"
15

#1570000
0"
05

#1575000
1"
15

#1580000
0"
05

#1585000
1"
15

#1590000
0"
05

#1595000
1"
15

#1600000
0"
05

#1605000
1"
15
b100010101000100010000110100001001000001 B
b1 C

#1606000
b100010101000100010000110100001001000001 $
1%
b100010101000100010000110100001001000001 (
1)
b100010101000100010000110100001001000001 7
18
b100010101000100010000110100001001000001 :
1;

#1610000
0"
05

#1615000
1"
b100010101000100010000110100001001000001 '
b1 +
b1 ,
b1 -
b11 2
r57.14285714285715 4
15
b101 >
b100 A

#1616000
b0 $
0%
0&
b0 (
0)
0*
b0 7
08
09
b0 :
0;
0<

#1620000
0"
05

#1625000
1"
b10 2
r78.57142857142857 4
15
b100111101001110010011010100110001001011 B

#1626000
b100111101001110010011010100110001001011 $
1%
b100111101001110010011010100110001001011 (
1)
b100111101001110010011010100110001001011 7
18
b100111101001110010011010100110001001011 :
1;

#1630000
0"
05

#1635000
1"
b1 2
r85.71428571428571 4
15

#1640000
0"
05

#1645000
1"
b0 2
15

#1646000
1&
1*
19
1<

#1650000
0"
05

#1655000
1"
b100111101001110010011010100110001001011 '
b10 +
b10 ,
b10 -
r90.47619047619047 4
15
b101 >

#1656000
b0 $
0%
b0 (
0)
b0 7
08
b0 :
0;

#1660000
0"
05

#1665000
1"
15
b101100101011000010101110101011001010101 B
b11 C

#1666000
b101100101011000010101110101011001010101 $
1%
b101100101011000010101110101011001010101 (
1)
b101100101011000010101110101011001010101 7
18
b101100101011000010101110101011001010101 :
1;

#1670000
0"
05

#1675000
1"
b101100101011000010101110101011001010101 '
b11 +
b11 ,
b11 -
15
b101 >

#1676000
b0 $
0%
b0 (
0)
b0 7
08
b0 :
0;

#1680000
0"
05

#1685000
1"
b0 2
15
b1 A

#1686000
1*

#1690000
0"
05

#1695000
1"
15

#1700000
0"
05

#1705000
1"
b100 2
15
b101 A
b100100101001000010001110100011001000101 B
b1 C

#1706000
b100100101001000010001110100011001000101 $
1%
0&
b100100101001000010001110100011001000101 (
1)
0*
b100100101001000010001110100011001000101 7
18
09
b100100101001000010001110100011001000101 :
1;
0<

#1710000
0"
05

#1715000
1"
b11 2
15

#1720000
0"
05

#1725000
1"
b10 2
15

#1730000
0"
05

#1735000
1"
b1 2
15

#1740000
0"
05

#1745000
1"
b0 2
15

#1746000
1&
1*
19
1<

#1750000
0"
05

#1755000
1"
b100100101001000010001110100011001000101 '
b100 +
b100 ,
b100 -
b1 2
15
b101 >
b10 A

#1756000
b0 $
0%
0&
b0 (
0)
0*
b0 7
08
09
b0 :
0;
0<

#1760000
0"
05

#1765000
1"
b0 2
r92.85714285714286 4
15
b101001101010010010100010101000001001111 B
b0 C

#1766000
b101001101010010010100010101000001001111 $
1%
1&
b101001101010010010100010101000001001111 (
1)
1*
b101001101010010010100010101000001001111 7
18
19
b101001101010010010100010101000001001111 :
1;
1<

#1770000
0"
05

#1775000
1"
b101001101010010010100010101000001001111 '
b101 +
b101 ,
b101 -
b101 2
r97.61904761904762 4
15
b101 >
b110 A
b100001101000010010000010101101001011001 B
b10 C

#1776000
b100001101000010010000010101101001011001 $
0&
b100001101000010010000010101101001011001 (
0*
b100001101000010010000010101101001011001 7
09
b100001101000010010000010101101001011001 :
0<

#1780000
0"
05

#1785000
1"
b100 2
15

#1790000
0"
05

#1795000
1"
b11 2
15

#1800000
0"
05

#1805000
1"
b10 2
15

#1810000
0"
05

#1815000
1"
b1 2
15

#1820000
0"
05

#1825000
1"
b0 2
15

#1826000
1&
1*
19
1<

#1830000
0"
05

#1835000
1"
b100001101000010010000010101101001011001 '
b110 +
b110 ,
b110 -
15
b101 >

#1836000
b0 $
0%
b0 (
0)
b0 7
08
b0 :
0;

#1840000
0"
05

#1845000
1"
15

#1850000
0"
05

#1855000
1"
15
b100110101001100010010110100101001001001 B
b0 C

#1856000
b100110101001100010010110100101001001001 $
1%
b100110101001100010010110100101001001001 (
1)
b100110101001100010010110100101001001001 7
18
b100110101001100010010110100101001001001 :
1;

#1860000
0"
05

#1865000
1"
b100110101001100010010110100101001001001 '
b111 +
b111 ,
b111 -
15
b101 >
b101011101010110010101010101010001010011 B
b10 C

#1866000
b101011101010110010101010101010001010011 $
b101011101010110010101010101010001010011 (
b101011101010110010101010101010001010011 7
b101011101010110010101010101010001010011 :

#1870000
0"
05

#1875000
1"
b101011101010110010101010101010001010011 '
b1000 +
b1000 ,
b1000 -
15
b101 >

#1876000
b0 $
0%
b0 (
0)
b0 7
08
b0 :
0;

#1880000
0"
05

#1885000
1"
b1 2
15
b10 A

#1886000
0&
0*
09
0<

#1890000
0"
05

#1895000
1"
b0 2
15
b100011101000110010001010100010001000011 B
b11 C

#1896000
b100011101000110010001010100010001000011 $
1%
1&
b100011101000110010001010100010001000011 (
1)
1*
b100011101000110010001010100010001000011 7
18
19
b100011101000110010001010100010001000011 :
1;
1<

#1900000
0"
05

#1905000
1"
b100011101000110010001010100010001000011 '
b1001 +
b1001 ,
b1001 -
15
b101 >

#1906000
b0 $
0%
b0 (
0)
b0 7
08
b0 :
0;

#1910000
0"
05

#1915000
1"
15

#1920000
0"
05

#1925000
1"
b0 2
15
b1 A

#1926000
1*

#1930000
0"
05

#1935000
1"
15
b101000101010000010011110100111001001101 B
b0 C

#1936000
b101000101010000010011110100111001001101 $
1%
b101000101010000010011110100111001001101 (
1)
b101000101010000010011110100111001001101 7
18
b101000101010000010011110100111001001101 :
1;

#1940000
0"
05

#1945000
1"
b101000101010000010011110100111001001101 '
b1010 +
b1010 ,
b1010 -
15
b101 >
b100000101011010010110010101100001010111 B
b1 C

#1946000
b100000101011010010110010101100001010111 $
b100000101011010010110010101100001010111 (
b100000101011010010110010101100001010111 7
b100000101011010010110010101100001010111 :

#1950000
0"
05

#1955000
1"
b100000101011010010110010101100001010111 '
b1011 +
b1011 ,
b1011 -
15
b101 >

#1956000
b0 $
0%
b0 (
0)
b0 7
08
b0 :
0;

#1960000
0"
05

#1965000
1"
15
b100101101001010010010010100100001000111 B
b11 C

#1966000
b100101101001010010010010100100001000111 $
1%
b100101101001010010010010100100001000111 (
1)
b100101101001010010010010100100001000111 7
18
b100101101001010010010010100100001000111 :
1;

#1970000
0"
05

#1975000
1"
b100101101001010010010010100100001000111 '
b1100 +
b1100 ,
b1100 -
15
b101 >

#1976000
b0 $
0%
b0 (
0)
b0 7
08
b0 :
0;

#1980000
0"
05

#1985000
1"
15

#1990000
0"
05

#1995000
1"
b101 2
15
b110 A

#1996000
0&
0*
09
0<

#2000000
0"
05

#2005000
1"
b100 2
15
b101010101010100010100110101001001010001 B
b10 C

#2006000
b101010101010100010100110101001001010001 $
1%
b101010101010100010100110101001001010001 (
1)
b101010101010100010100110101001001010001 7
18
b101010101010100010100110101001001010001 :
1;

#2010000
0"
05

#2015000
1"
b11 2
15

#2020000
0"
05

#2025000
1"
b10 2
15

#2030000
0"
05

#2035000
1"
b1 2
15

#2040000
0"
05

#2045000
1"
b0 2
15

#2046000
1&
1*
19
1<

#2050000
0"
05

#2055000
1"
b101010101010100010100110101001001010001 '
b1101 +
b1101 ,
b1101 -
15
b101 >

#2056000
b0 $
0%
b0 (
0)
b0 7
08
b0 :
0;

#2060000
0"
05

#2065000
1"
b10 2
15
b11 A

#2066000
0&
0*
09
0<

#2070000
0"
05

#2075000
1"
b1 2
15
b100010101000100010000110100001001000001 B
b11 C

#2076000
b100010101000100010000110100001001000001 $
1%
b100010101000100010000110100001001000001 (
1)
b100010101000100010000110100001001000001 7
18
b100010101000100010000110100001001000001 :
1;

#2080000
0"
05

#2085000
1"
b0 2
15

#2086000
1&
1*
19
1<

#2090000
0"
05

#2095000
1"
b100010101000100010000110100001001000001 '
b1110 +
b1110 ,
b1110 -
r100 4
15
b101 >

#2096000
b0 $
0%
b0 (
0)
b0 7
08
b0 :
0;

#2100000
0"
05

#2105000
1"
15

#2110000
0"
05

#2115000
1"
15

#2120000
0"
05

#2125000
1"
15
b100111101001110010011010100110001001011 B
b10 C

#2126000
b100111101001110010011010100110001001011 $
1%
b100111101001110010011010100110001001011 (
1)
b100111101001110010011010100110001001011 7
18
b100111101001110010011010100110001001011 :
1;

#2130000
0"
05

#2135000
1"
b100111101001110010011010100110001001011 '
b1111 +
b1111 ,
b1111 -
15
b101 >

#2136000
b0 $
0%
b0 (
0)
b0 7
08
b0 :
0;

#2140000
0"
05

#2145000
1"
b0 2
15
b1 A

#2146000
1*

#2150000
0"
05

#2155000
1"
15
b101100101011000010101110101011001010101 B
b0 C

#2156000
b101100101011000010101110101011001010101 $
1%
b101100101011000010101110101011001010101 (
1)
b101100101011000010101110101011001010101 7
18
b101100101011000010101110101011001010101 :
1;

#2160000
0"
05

#2165000
1"
b101100101011000010101110101011001010101 '
b10000 +
b10000 ,
b10000 -
15
b101 >
b100100101001000010001110100011001000101 B

#2166000
b100100101001000010001110100011001000101 $
b100100101001000010001110100011001000101 (
b100100101001000010001110100011001000101 7
b100100101001000010001110100011001000101 :

#2170000
0"
05

#2175000
1"
b100100101001000010001110100011001000101 '
b10001 +
b10001 ,
b10001 -
b11 2
15
b101 >
b100 A
b101001101010010010100010101000001001111 B
b11 C

#2176000
b101001101010010010100010101000001001111 $
0&
b101001101010010010100010101000001001111 (
0*
b101001101010010010100010101000001001111 7
09
b101001101010010010100010101000001001111 :
0<

#2180000
0"
05

#2185000
1"
b10 2
15

#2190000
0"
05

#2195000
1"
b1 2
15

#2200000
0"
05

#2205000
1"
b0 2
15

#2206000
1&
1*
19
1<

#2210000
0"
05

#2215000
1"
b101001101010010010100010101000001001111 '
b10010 +
b10010 ,
b10010 -
15
b101 >

#2216000
b0 $
0%
b0 (
0)
b0 7
08
b0 :
0;

#2220000
0"
05

#2225000
1"
15

#2230000
0"
05

#2235000
1"
15

#2240000
0"
05

#2245000
1"
15
b100001101000010010000010101101001011001 B
b1 C

#2246000
b100001101000010010000010101101001011001 $
1%
b100001101000010010000010101101001011001 (
1)
b100001101000010010000010101101001011001 7
18
b100001101000010010000010101101001011001 :
1;

#2250000
0"
05

#2255000
1"
b100001101000010010000010101101001011001 '
b10011 +
b10011 ,
b10011 -
15
b101 >

#2256000
b0 $
0%
b0 (
0)
b0 7
08
b0 :
0;

#2260000
0"
05

#2265000
1"
b1 2
15
b10 A
b100110101001100010010110100101001001001 B
b11 C

#2266000
b100110101001100010010110100101001001001 $
1%
0&
b100110101001100010010110100101001001001 (
1)
0*
b100110101001100010010110100101001001001 7
18
09
b100110101001100010010110100101001001001 :
1;
0<

#2270000
0"
05

#2275000
1"
b0 2
15

#2276000
1&
1*
19
1<

#2280000
0"
05

#2285000
1"
b100110101001100010010110100101001001001 '
b10100 +
b10100 ,
b10100 -
15
b101 >

#2286000
b0 $
0%
b0 (
0)
b0 7
08
b0 :
0;

#2290000
0"
05

#2295000
1"
15

#2300000
0"
05

#2305000
1"
15

#2310000
0"
05

#2315000
1"
15
b101011101010110010101010101010001010011 B

#2316000
b101011101010110010101010101010001010011 $
1%
b101011101010110010101010101010001010011 (
1)
b101011101010110010101010101010001010011 7
18
b101011101010110010101010101010001010011 :
1;

#2320000
0"
05

#2325000
1"
b101011101010110010101010101010001010011 '
b10101 +
b10101 ,
b10101 -
15
b101 >

#2326000
b0 $
0%
b0 (
0)
b0 7
08
b0 :
0;

#2330000
0"
05

#2335000
1"
15

#2340000
0"
05

#2345000
1"
b11 2
15
b100 A

#2346000
0&
0*
09
0<

#2350000
0"
05

#2355000
1"
b10 2
15
b100011101000110010001010100010001000011 B
b0 C

#2356000
b100011101000110010001010100010001000011 $
1%
b100011101000110010001010100010001000011 (
1)
b100011101000110010001010100010001000011 7
18
b100011101000110010001010100010001000011 :
1;

#2360000
0"
05

#2365000
1"
b1 2
15

#2370000
0"
05

#2375000
1"
b0 2
15

#2376000
1&
1*
19
1<

#2380000
0"
05

#2385000
1"
b100011101000110010001010100010001000011 '
b10110 +
b10110 ,
b10110 -
15
b101 >
b101000101010000010011110100111001001101 B
b10 C

#2386000
b101000101010000010011110100111001001101 $
b101000101010000010011110100111001001101 (
b101000101010000010011110100111001001101 7
b101000101010000010011110100111001001101 :

#2390000
0"
05

#2395000
1"
b101000101010000010011110100111001001101 '
b10111 +
b10111 ,
b10111 -
15
b101 >

#2396000
b0 $
0%
b0 (
0)
b0 7
08
b0 :
0;

#2400000
0"
05

#2405000
1"
b0 2
15
b1 A

#2406000
1*

#2410000
0"
05

#2415000
1"
15
b100000101011010010110010101100001010111 B
b1 C

#2416000
b100000101011010010110010101100001010111 $
1%
b100000101011010010110010101100001010111 (
1)
b100000101011010010110010101100001010111 7
18
b100000101011010010110010101100001010111 :
1;

#2420000
0"
05

#2425000
1"
b100000101011010010110010101100001010111 '
b11000 +
b11000 ,
b11000 -
15
b101 >

#2426000
b0 $
0%
b0 (
0)
b0 7
08
b0 :
0;

#2430000
0"
05

#2435000
1"
15
b100101101001010010010010100100001000111 B
b11 C

#2436000
b100101101001010010010010100100001000111 $
1%
b100101101001010010010010100100001000111 (
1)
b100101101001010010010010100100001000111 7
18
b100101101001010010010010100100001000111 :
1;

#2440000
0"
05

#2445000
1"
b100101101001010010010010100100001000111 '
b11001 +
b11001 ,
b11001 -
15
b101 >

#2446000
b0 $
0%
b0 (
0)
b0 7
08
b0 :
0;

#2450000
0"
05

#2455000
1"
b101 2
15
b110 A

#2456000
0&
0*
09
0<

#2460000
0"
05

#2465000
1"
b100 2
15

#2470000
0"
05

#2475000
1"
b11 2
15
b101010101010100010100110101001001010001 B
b1 C

#2476000
b101010101010100010100110101001001010001 $
1%
b101010101010100010100110101001001010001 (
1)
b101010101010100010100110101001001010001 7
18
b101010101010100010100110101001001010001 :
1;

#2480000
0"
05

#2485000
1"
b10 2
15

#2490000
0"
05

#2495000
1"
b1 2
15

#2500000
0"
05

#2505000
1"
b0 2
15

#2506000
1&
1*
19
1<

#2510000
0"
05

#2515000
1"
b101010101010100010100110101001001010001 '
b11010 +
b11010 ,
b11010 -
15
b101 >

#2516000
b0 $
0%
b0 (
0)
b0 7
08
b0 :
0;

#2520000
0"
05

#2525000
1"
15
b100010101000100010000110100001001000001 B
b10 C

#2526000
b100010101000100010000110100001001000001 $
1%
b100010101000100010000110100001001000001 (
1)
b100010101000100010000110100001001000001 7
18
b100010101000100010000110100001001000001 :
1;

#2530000
0"
05

#2535000
1"
b100010101000100010000110100001001000001 '
b11011 +
b11011 ,
b11011 -
15
b101 >

#2536000
b0 $
0%
b0 (
0)
b0 7
08
b0 :
0;

#2540000
0"
05

#2545000
1"
15

#2550000
0"
05

#2555000
1"
15
b100111101001110010011010100110001001011 B

#2556000
b100111101001110010011010100110001001011 $
1%
b100111101001110010011010100110001001011 (
1)
b100111101001110010011010100110001001011 7
18
b100111101001110010011010100110001001011 :
1;

#2560000
0"
05

#2565000
1"
b100111101001110010011010100110001001011 '
b11100 +
b11100 ,
b11100 -
b11 2
15
b101 >
b100 A

#2566000
b0 $
0%
0&
b0 (
0)
0*
b0 7
08
09
b0 :
0;
0<

#2570000
0"
05

#2575000
1"
b10 2
15

#2580000
0"
05

#2585000
1"
b1 2
15
b101100101011000010101110101011001010101 B
b0 C

#2586000
b101100101011000010101110101011001010101 $
1%
b101100101011000010101110101011001010101 (
1)
b101100101011000010101110101011001010101 7
18
b101100101011000010101110101011001010101 :
1;

#2590000
0"
05

#2595000
1"
b0 2
15

#2596000
1&
1*
19
1<

#2600000
0"
05

#2605000
1"
b101100101011000010101110101011001010101 '
b11101 +
b11101 ,
b11101 -
15
b101 >
b100100101001000010001110100011001000101 B
b11 C

#2606000
b100100101001000010001110100011001000101 $
b100100101001000010001110100011001000101 (
b100100101001000010001110100011001000101 7
b100100101001000010001110100011001000101 :

#2610000
0"
05

#2615000
1"
b100100101001000010001110100011001000101 '
b11110 +
b11110 ,
b11110 -
b1 2
15
b101 >
b10 A

#2616000
b0 $
0%
0&
b0 (
0)
0*
b0 7
08
09
b0 :
0;
0<

#2620000
0"
05

#2625000
1"
b0 2
15

#2626000
1&
1*
19
1<

#2630000
0"
05

#2635000
1"
15

#2640000
0"
05

#2645000
1"
15
b101001101010010010100010101000001001111 B
b1 C

#2646000
b101001101010010010100010101000001001111 $
1%
b101001101010010010100010101000001001111 (
1)
b101001101010010010100010101000001001111 7
18
b101001101010010010100010101000001001111 :
1;

#2650000
0"
05

#2655000
1"
b101001101010010010100010101000001001111 '
b11111 +
b11111 ,
b11111 -
15
b101 >

#2656000
b0 $
0%
b0 (
0)
b0 7
08
b0 :
0;

#2660000
0"
05

#2665000
1"
15
b100001101000010010000010101101001011001 B
b0 C

#2666000
b100001101000010010000010101101001011001 $
1%
b100001101000010010000010101101001011001 (
1)
b100001101000010010000010101101001011001 7
18
b100001101000010010000010101101001011001 :
1;

#2670000
0"
05

#2675000
1"
b100001101000010010000010101101001011001 '
b100000 +
b100000 ,
b100000 -
15
b101 >
b100110101001100010010110100101001001001 B
b11 C

#2676000
b100110101001100010010110100101001001001 $
b100110101001100010010110100101001001001 (
b100110101001100010010110100101001001001 7
b100110101001100010010110100101001001001 :

#2680000
0"
05

#2685000
1"
b100110101001100010010110100101001001001 '
b100001 +
b100001 ,
b100001 -
15
b101 >

#2686000
b0 $
0%
b0 (
0)
b0 7
08
b0 :
0;

#2690000
0"
05

#2695000
1"
b10 2
15
b11 A

#2696000
0&
0*
09
0<

#2700000
0"
05

#2705000
1"
b1 2
15

#2710000
0"
05

#2715000
1"
b0 2
15
b101011101010110010101010101010001010011 B
b1 C

#2716000
b101011101010110010101010101010001010011 $
1%
1&
b101011101010110010101010101010001010011 (
1)
1*
b101011101010110010101010101010001010011 7
18
19
b101011101010110010101010101010001010011 :
1;
1<

#2720000
0"
05

#2725000
1"
b101011101010110010101010101010001010011 '
b100010 +
b100010 ,
b100010 -
15
b101 >

#2726000
b0 $
0%
b0 (
0)
b0 7
08
b0 :
0;

#2730000
0"
05

#2735000
1"
15
b100011101000110010001010100010001000011 B
b0 C

#2736000
b100011101000110010001010100010001000011 $
1%
b100011101000110010001010100010001000011 (
1)
b100011101000110010001010100010001000011 7
18
b100011101000110010001010100010001000011 :
1;

#2740000
0"
05

#2745000
1"
b100011101000110010001010100010001000011 '
b100011 +
b100011 ,
b100011 -
15
b101 >
b101000101010000010011110100111001001101 B

#2746000
b101000101010000010011110100111001001101 $
b101000101010000010011110100111001001101 (
b101000101010000010011110100111001001101 7
b101000101010000010011110100111001001101 :

#2750000
0"
05

#2755000
1"
b101000101010000010011110100111001001101 '
b100100 +
b100100 ,
b100100 -
15
b101 >
b100000101011010010110010101100001010111 B
b1 C

#2756000
b100000101011010010110010101100001010111 $
b100000101011010010110010101100001010111 (
b100000101011010010110010101100001010111 7
b100000101011010010110010101100001010111 :

#2760000
0"
05

#2765000
1"
b100000101011010010110010101100001010111 '
b100101 +
b100101 ,
b100101 -
15
b101 >

#2766000
b0 $
0%
b0 (
0)
b0 7
08
b0 :
0;

#2770000
0"
05

#2775000
1"
b1 2
15
b10 A
b100101101001010010010010100100001000111 B
b0 C

#2776000
b100101101001010010010010100100001000111 $
1%
0&
b100101101001010010010010100100001000111 (
1)
0*
b100101101001010010010010100100001000111 7
18
09
b100101101001010010010010100100001000111 :
1;
0<

#2780000
0"
05

#2785000
1"
b0 2
15

#2786000
1&
1*
19
1<

#2790000
0"
05

#2795000
1"
b100101101001010010010010100100001000111 '
b100110 +
b100110 ,
b100110 -
b100 2
15
b101 >
b101 A
b101010101010100010100110101001001010001 B
b1 C

#2796000
b101010101010100010100110101001001010001 $
0&
b101010101010100010100110101001001010001 (
0*
b101010101010100010100110101001001010001 7
09
b101010101010100010100110101001001010001 :
0<

#2800000
0"
05

#2805000
1"
b11 2
15

#2810000
0"
05

#2815000
1"
b10 2
15

#2820000
0"
05

#2825000
1"
b1 2
15

#2830000
0"
05

#2835000
1"
b0 2
15

#2836000
1&
1*
19
1<

#2840000
0"
05

#2845000
1"
b101010101010100010100110101001001010001 '
b100111 +
b100111 ,
b100111 -
15
b101 >

#2846000
b0 $
0%
b0 (
0)
b0 7
08
b0 :
0;

#2850000
0"
05

#2855000
1"
15
b100010101000100010000110100001001000001 B
b11 C

#2856000
b100010101000100010000110100001001000001 $
1%
b100010101000100010000110100001001000001 (
1)
b100010101000100010000110100001001000001 7
18
b100010101000100010000110100001001000001 :
1;

#2860000
0"
05

#2865000
1"
b100010101000100010000110100001001000001 '
b101000 +
b101000 ,
b101000 -
15
b101 >

#2866000
b0 $
0%
b0 (
0)
b0 7
08
b0 :
0;

#2870000
0"
05

#2875000
1"
15

#2880000
0"
05

#2885000
1"
b1 2
15
b10 A

#2886000
0&
0*
09
0<

#2890000
0"
05

#2895000
1"
b0 2
15
b100111101001110010011010100110001001011 B

#2896000
b100111101001110010011010100110001001011 $
1%
1&
b100111101001110010011010100110001001011 (
1)
1*
b100111101001110010011010100110001001011 7
18
19
b100111101001110010011010100110001001011 :
1;
1<

#2900000
0"
05

#2905000
1"
b100111101001110010011010100110001001011 '
b101001 +
b101001 ,
b101001 -
15
b101 >

#2906000
b0 $
0%
b0 (
0)
b0 7
08
b0 :
0;

#2910000
0"
05

#2915000
1"
b11 2
15
b100 A

#2916000
0&
0*
09
0<

#2920000
0"
05

#2925000
1"
b10 2
15

#2930000
0"
05

#2935000
1"
b1 2
15
b101100101011000010101110101011001010101 B
b0 C

#2936000
b101100101011000010101110101011001010101 $
1%
b101100101011000010101110101011001010101 (
1)
b101100101011000010101110101011001010101 7
18
b101100101011000010101110101011001010101 :
1;

#2940000
0"
05

#2945000
1"
b0 2
15

#2946000
1&
1*
19
1<

#2950000
0"
05

#2955000
1"
b101100101011000010101110101011001010101 '
b101010 +
b101010 ,
b101010 -
15
b101 >
b100100101001000010001110100011001000101 B
b11 C

